{
    "name": "dekko2.dekkan",
    "description": "Experimental release of the next generation Dekko.",
    "framework": "ubuntu-sdk-16.04",
    "architecture": "armhf",
    "title": "Dekko 2",
    "hooks": {
        "dekko": {
            "apparmor": "dekko2.apparmor",
            "content-hub": "dekko2-content.json",
            "desktop": "dekko2.desktop",
            "urls": "dekko2.url-dispatcher"
        },
        "dekkod": {
            "apparmor": "dekkod.apparmor"
        },
        "dekko-notify": {
            "apparmor": "dekkohelper-aa.json",
            "push-helper": "dekko-helper.json"
        }
    },
    "version": "%VERSION%",
    "maintainer": "Dan Chapman <dpniel@ubuntu.com>"
}
